Journal (reproducible report)
…
# 2.0 Importing Files ----
# A good convention is to use the file name and suffix it with tbl for the data structure tibble

bikes_tbl <- read_excel("C:/Users/veere/OneDrive/Desktop/Third/Bussines Data Science/DS_101/DS_101/00_data/01_bike_sales/01_raw_data/bikes.xlsx")
orderlines_tbl <- read_excel("C:/Users/veere/OneDrive/Desktop/Third/Bussines Data Science/DS_101/DS_101/00_data/01_bike_sales/01_raw_data/orderlines.xlsx")
bikeshops_tbl <- read_excel("C:/Users/veere/OneDrive/Desktop/Third/Bussines Data Science/DS_101/DS_101/00_data/01_bike_sales/01_raw_data/bikeshops.xlsx")

# If the data has no common column name, you can provide each column name in the "by" argument. For example, by = c("a" = "b") will match x.a to y.b. The order of the columns has to match the order of the tibbles).

left_join(orderlines_tbl, bikes_tbl, by = c("product.id" = "bike.id"))

## # A tibble: 15,644 x 15
##    ...1  order.id order.line order.date          customer.id product.id quantity
##    <chr>    <dbl>      <dbl> <dttm>                    <dbl>      <dbl>    <dbl>
##  1 1            1          1 2015-01-07 00:00:00           2       2681        1
##  2 2            1          2 2015-01-07 00:00:00           2       2411        1
##  3 3            2          1 2015-01-10 00:00:00          10       2629        1
##  4 4            2          2 2015-01-10 00:00:00          10       2137        1
##  5 5            3          1 2015-01-10 00:00:00           6       2367        1
##  6 6            3          2 2015-01-10 00:00:00           6       1973        1
##  7 7            3          3 2015-01-10 00:00:00           6       2422        1
##  8 8            3          4 2015-01-10 00:00:00           6       2655        1
##  9 9            3          5 2015-01-10 00:00:00           6       2247        1
## 10 10           4          1 2015-01-11 00:00:00          22       2408        1
## # ... with 15,634 more rows, and 8 more variables: model <chr>,
## #   model.year <dbl>, frame.material <chr>, weight <dbl>, price <dbl>,
## #   category <chr>, gender <chr>, url <chr>
…
# 2.0 Importing Files ----
# A good convention is to use the file name and suffix it with tbl for the data structure tibble

bikes_tbl <- read_excel("C:/Users/veere/OneDrive/Desktop/Third/Bussines Data Science/DS_101/DS_101/00_data/01_bike_sales/01_raw_data/bikes.xlsx")
orderlines_tbl <- read_excel("C:/Users/veere/OneDrive/Desktop/Third/Bussines Data Science/DS_101/DS_101/00_data/01_bike_sales/01_raw_data/orderlines.xlsx")
bikeshops_tbl <- read_excel("C:/Users/veere/OneDrive/Desktop/Third/Bussines Data Science/DS_101/DS_101/00_data/01_bike_sales/01_raw_data/bikeshops.xlsx")

# If the data has no common column name, you can provide each column name in the "by" argument. For example, by = c("a" = "b") will match x.a to y.b. The order of the columns has to match the order of the tibbles).

left_join(orderlines_tbl, bikes_tbl, by = c("product.id" = "bike.id"))

## # A tibble: 15,644 x 15
##    ...1  order.id order.line order.date          customer.id product.id quantity
##    <chr>    <dbl>      <dbl> <dttm>                    <dbl>      <dbl>    <dbl>
##  1 1            1          1 2015-01-07 00:00:00           2       2681        1
##  2 2            1          2 2015-01-07 00:00:00           2       2411        1
##  3 3            2          1 2015-01-10 00:00:00          10       2629        1
##  4 4            2          2 2015-01-10 00:00:00          10       2137        1
##  5 5            3          1 2015-01-10 00:00:00           6       2367        1
##  6 6            3          2 2015-01-10 00:00:00           6       1973        1
##  7 7            3          3 2015-01-10 00:00:00           6       2422        1
##  8 8            3          4 2015-01-10 00:00:00           6       2655        1
##  9 9            3          5 2015-01-10 00:00:00           6       2247        1
## 10 10           4          1 2015-01-11 00:00:00          22       2408        1
## # ... with 15,634 more rows, and 8 more variables: model <chr>,
## #   model.year <dbl>, frame.material <chr>, weight <dbl>, price <dbl>,
## #   category <chr>, gender <chr>, url <chr>
…
## Running cmd /c start "\"\"" /b \
##   "https://www.radon-bikes.de/mountainbike/hardtail/bikegrid"

html_bike_category  <- read_html(bike_category_url)

bike_name_tbl        <- html_bike_category %>%
html_nodes(css = ".m-bikegrid__info .a-heading--small") %>%
html_text() %>%

enframe(name = "position", value = "name")
bike_name_tbl 

## # A tibble: 33 x 2
##    position name                                                                
##       <int> <chr>                                                               
##  1        1 "\n                                    JEALOUS 8.0\n               ~
##  2        2 "\n                                    JEALOUS 9.0\n               ~
##  3        3 "\n                                    JEALOUS 10.0\n              ~
##  4        4 "\n                                    JEALOUS 10.0 EA\n           ~
##  5        5 "\n                                    JEALOUS 10.0\n              ~
##  6        6 "\n                                    JEALOUS 10.0 EA\n           ~
##  7        7 "\n                                    NEW JEALOUS SUPERLITE 1X\n  ~
##  8        8 "\n                                    JEALOUS AL 8.0\n            ~
##  9        9 "\n                                    JEALOUS AL 8.0 HD\n         ~
## 10       10 "\n                                    JEALOUS AL 9.0\n            ~
## # ... with 23 more rows

bike_price_tbl <- html_bike_category %>%
html_nodes(css = ".m-bikegrid__price.currency_eur .m-bikegrid__price--active") %>%  
html_text() %>% 
enframe(name = "position", value = "price")
bike_price_tbl

## # A tibble: 33 x 2
##    position price 
##       <int> <chr> 
##  1        1 2599 €
##  2        2 2999 €
##  3        3 3999 €
##  4        4 5299 €
##  5        5 3699 €
##  6        6 3799€ 
##  7        7 999 € 
##  8        8 999 € 
##  9        9 1299 €
## 10       10 1499 €
## # ... with 23 more rows

model_price_tbl <- left_join(bike_name_tbl, bike_price_tbl)%>% 
select(name, price)
model_price_tbl

## # A tibble: 33 x 2
##    name                                                                    price
##    <chr>                                                                   <chr>
##  1 "\n                                    JEALOUS 8.0\n                  ~ 2599~
##  2 "\n                                    JEALOUS 9.0\n                  ~ 2999~
##  3 "\n                                    JEALOUS 10.0\n                 ~ 3999~
##  4 "\n                                    JEALOUS 10.0 EA\n              ~ 5299~
##  5 "\n                                    JEALOUS 10.0\n                 ~ 3699~
##  6 "\n                                    JEALOUS 10.0 EA\n              ~ 3799€
##  7 "\n                                    NEW JEALOUS SUPERLITE 1X\n     ~ 999 €
##  8 "\n                                    JEALOUS AL 8.0\n               ~ 999 €
##  9 "\n                                    JEALOUS AL 8.0 HD\n            ~ 1299~
## 10 "\n                                    JEALOUS AL 9.0\n               ~ 1499~
## # ... with 23 more rows
…
